Globalization and Climate Change: Food Trade
…
product_imports <- read_csv("product_imports.csv")
product_imports

## # A tibble: 133 x 3
##     Year Product              Quantity
##    <int> <chr>                   <dbl>
##  1  1999 Coffe & tea & spices    3604.
##  2  2000 Coffe & tea & spices    3442.
##  3  2001 Coffe & tea & spices    2401.
##  4  2002 Coffe & tea & spices    2455.
##  5  2003 Coffe & tea & spices    2872.
##  6  2004 Coffe & tea & spices    3144.
##  7  2005 Coffe & tea & spices    3771.
##  8  2006 Coffe & tea & spices    4195.
##  9  2007 Coffe & tea & spices    4791.
## 10  2008 Coffe & tea & spices    5581.
## # ... with 123 more rows
…
## Parsed with column specification:
## cols(
##   year = col_integer(),
##   month = col_integer(),
##   decimal_date = col_double(),
##   average = col_double(),
##   interpolated = col_double(),
##   trend = col_double(),
##   days = col_integer()
## )

co2

## # A tibble: 729 x 7
##     year month decimal_date average interpolated trend  days
##    <int> <int>        <dbl>   <dbl>        <dbl> <dbl> <int>
##  1  1958     3        1958.    316.         316.  315.    NA
##  2  1958     4        1958.    317.         317.  315.    NA
##  3  1958     5        1958.    318.         318.  315.    NA
##  4  1958     6        1958.     NA          317.  315.    NA
##  5  1958     7        1959.    316.         316.  315.    NA
##  6  1958     8        1959.    315.         315.  316.    NA
##  7  1958     9        1959.    313.         313.  316.    NA
##  8  1958    10        1959.     NA          313.  316.    NA
##  9  1958    11        1959.    313.         313.  315.    NA
## 10  1958    12        1959.    315.         315.  316.    NA
## # ... with 719 more rows

berkeley_co2 <- filter(co2, year >= "1999", year <= "2017")
berkeley_co2

## # A tibble: 228 x 7
##     year month decimal_date average interpolated trend  days
##    <int> <int>        <dbl>   <dbl>        <dbl> <dbl> <int>
##  1  1999     1        1999.    368.         368.  368.    27
##  2  1999     2        1999.    369.         369.  368.    22
##  3  1999     3        1999.    370.         370.  368.    25
##  4  1999     4        1999.    371.         371.  368.    29
##  5  1999     5        1999.    371.         371.  368.    26
##  6  1999     6        1999.    370.         370.  368.    26
##  7  1999     7        2000.    369.         369.  369.    27
##  8  1999     8        2000.    367.         367.  368.    25
##  9  1999     9        2000.    365.         365.  368.    28
## 10  1999    10        2000.    365.         365.  369.    31
## # ... with 218 more rows
…
Atmospheric Carbon Dioxide Data

Data sourced from NASA

co2 <-
readr::read_table("ftp://aftp.cmdl.noaa.gov/products/trends/co2/co2_mm_mlo.txt",
                  comment = "#",
                  col_names = c("year", "month", "decimal_date", "average",
                                "interpolated", "trend", "days"),
                  na = c("-1", "-99.99"))

berkeley_co2 <- filter(co2, year >= "1999", year <= "2017")
berkeley_co2

## # A tibble: 228 x 7
##     year month decimal_date average interpolated trend  days
##    <int> <int>        <dbl>   <dbl>        <dbl> <dbl> <int>
##  1  1999     1        1999.    368.         368.  368.    27
##  2  1999     2        1999.    369.         369.  368.    22
##  3  1999     3        1999.    370.         370.  368.    25
##  4  1999     4        1999.    371.         371.  368.    29
##  5  1999     5        1999.    371.         371.  368.    26
##  6  1999     6        1999.    370.         370.  368.    26
##  7  1999     7        2000.    369.         369.  369.    27
##  8  1999     8        2000.    367.         367.  368.    25
##  9  1999     9        2000.    365.         365.  368.    28
## 10  1999    10        2000.    365.         365.  369.    31
## # ... with 218 more rows
…
